architecture/cpu_pipeline.vcd
$date
	Mon Dec 22 22:34:29 2025
$end
$version
	Icarus Verilog
$end
$timescale
	1ns
$end
$scope module cpu_tb_pipeline $end
$var reg 1 ! clk $end
$var reg 1 " rst $end
$var integer 32 # drain_cycles [31:0] $end
$var integer 32 $ i [31:0] $end
$scope module dut $end
$var wire 1 % branch_taken $end
$var wire 1 ! clk $end
$var wire 1 & if_flush $end
$var wire 1 ' jump_taken $end
$var wire 16 ( jump_target [15:0] $end
$var wire 1 " rst $end
$var wire 1 ) stall_signal $end
$var wire 16 * wb_write_data [15:0] $end
$var wire 1 + wb_reg_write $end
$var wire 4 , wb_rd [3:0] $end
$var wire 1 - wb_mem_to_reg $end
$var wire 16 . wb_mem_data [15:0] $end
$var wire 16 / wb_alu_result [15:0] $end
$var wire 1 0 mem_zero $end
$var wire 16 1 mem_rs2_data [15:0] $end
$var wire 1 2 mem_reg_write $end
$var wire 16 3 mem_read_data [15:0] $end
$var wire 4 4 mem_rd [3:0] $end
$var wire 1 5 mem_mem_write $end
$var wire 1 6 mem_mem_to_reg $end
$var wire 1 7 mem_mem_read $end
$var wire 16 8 mem_branch_target [15:0] $end
$var wire 1 9 mem_branch_ne $end
$var wire 1 : mem_branch $end
$var wire 16 ; mem_alu_result [15:0] $end
$var wire 1 < ifid_write_en $end
$var wire 16 = if_pc [15:0] $end
$var wire 16 > if_instr [15:0] $end
$var wire 16 ? id_rs2_data [15:0] $end
$var wire 4 @ id_rs2 [3:0] $end
$var wire 16 A id_rs1_data [15:0] $end
$var wire 4 B id_rs1 [3:0] $end
$var wire 1 C id_reg_write $end
$var wire 4 D id_rd [3:0] $end
$var wire 1 E id_pc_write $end
$var wire 16 F id_pc [15:0] $end
$var wire 4 G id_opcode [3:0] $end
$var wire 1 H id_mem_write $end
$var wire 1 I id_mem_to_reg $end
$var wire 1 J id_mem_read $end
$var wire 1 K id_jump $end
$var wire 16 L id_instr [15:0] $end
$var wire 16 M id_imm [15:0] $end
$var wire 1 N id_halt $end
$var wire 1 O id_branch_ne $end
$var wire 1 P id_branch $end
$var wire 1 Q id_alu_src $end
$var wire 4 R id_alu_op [3:0] $end
$var wire 2 S forward_b [1:0] $end
$var wire 2 T forward_a [1:0] $end
$var wire 1 U flush_signal $end
$var wire 1 V ex2_zero $end
$var wire 16 W ex2_rs2_data [15:0] $end
$var wire 1 X ex2_reg_write $end
$var wire 4 Y ex2_rd [3:0] $end
$var wire 1 Z ex2_mem_write $end
$var wire 1 [ ex2_mem_to_reg $end
$var wire 1 \ ex2_mem_read $end
$var wire 16 ] ex2_branch_target [15:0] $end
$var wire 1 ^ ex2_branch_ne $end
$var wire 1 _ ex2_branch $end
$var wire 16 ` ex2_alu_result [15:0] $end
$var wire 1 a ex1_zero $end
$var wire 16 b ex1_rs2_fwd [15:0] $end
$var wire 16 c ex1_rs2_data [15:0] $end
$var wire 4 d ex1_rs2 [3:0] $end
$var wire 16 e ex1_rs1_fwd [15:0] $end
$var wire 16 f ex1_rs1_data [15:0] $end
$var wire 4 g ex1_rs1 [3:0] $end
$var wire 1 h ex1_reg_write $end
$var wire 4 i ex1_rd [3:0] $end
$var wire 16 j ex1_pc [15:0] $end
$var wire 1 k ex1_mem_write $end
$var wire 1 l ex1_mem_to_reg $end
$var wire 1 m ex1_mem_read $end
$var wire 16 n ex1_imm [15:0] $end
$var wire 16 o ex1_branch_target [15:0] $end
$var wire 1 p ex1_branch_ne $end
$var wire 1 q ex1_branch $end
$var wire 1 r ex1_alu_src $end
$var wire 16 s ex1_alu_result [15:0] $end
$var wire 4 t ex1_alu_op [3:0] $end
$var wire 16 u alu_input_b [15:0] $end
$var reg 1 v halted $end
$scope module u_alu $end
$var wire 16 w a [15:0] $end
$var wire 16 x b [15:0] $end
$var wire 1 a zero $end
$var wire 4 y alu_op [3:0] $end
$var reg 16 z alu_result [15:0] $end
$upscope $end
$scope module u_ctrl $end
$var wire 1 { is_nop $end
$var wire 4 | opcode [3:0] $end
$var reg 4 } alu_op [3:0] $end
$var reg 1 Q alu_src $end
$var reg 1 P branch $end
$var reg 1 O branch_ne $end
$var reg 1 N halt $end
$var reg 1 K jump $end
$var reg 1 J mem_read $end
$var reg 1 I mem_to_reg $end
$var reg 1 H mem_write $end
$var reg 1 C reg_write $end
$upscope $end
$scope module u_dmem $end
$var wire 1 ! clk $end
$var wire 16 ~ write_data [15:0] $end
$var wire 1 5 mem_write $end
$var wire 1 7 mem_read $end
$var wire 16 !" addr [15:0] $end
$var reg 16 "" read_data [15:0] $end
$var integer 32 #" i [31:0] $end
$upscope $end
$scope module u_ex1_ex2 $end
$var wire 1 ! clk $end
$var wire 16 $" ex1_alu_result [15:0] $end
$var wire 16 %" ex1_branch_target [15:0] $end
$var wire 16 &" ex1_rs2_data [15:0] $end
$var wire 1 a ex1_zero $end
$var wire 1 " rst $end
$var wire 1 h ex1_reg_write $end
$var wire 4 '" ex1_rd [3:0] $end
$var wire 1 k ex1_mem_write $end
$var wire 1 l ex1_mem_to_reg $end
$var wire 1 m ex1_mem_read $end
$var wire 1 p ex1_branch_ne $end
$var wire 1 q ex1_branch $end
$var reg 16 (" ex2_alu_result [15:0] $end
$var reg 1 _ ex2_branch $end
$var reg 1 ^ ex2_branch_ne $end
$var reg 16 )" ex2_branch_target [15:0] $end
$var reg 1 \ ex2_mem_read $end
$var reg 1 [ ex2_mem_to_reg $end
$var reg 1 Z ex2_mem_write $end
$var reg 4 *" ex2_rd [3:0] $end
$var reg 1 X ex2_reg_write $end
$var reg 16 +" ex2_rs2_data [15:0] $end
$var reg 1 V ex2_zero $end
$upscope $end
$scope module u_ex2_mem $end
$var wire 1 ! clk $end
$var wire 16 ," ex2_alu_result [15:0] $end
$var wire 1 _ ex2_branch $end
$var wire 1 ^ ex2_branch_ne $end
$var wire 16 -" ex2_branch_target [15:0] $end
$var wire 1 \ ex2_mem_read $end
$var wire 1 [ ex2_mem_to_reg $end
$var wire 1 Z ex2_mem_write $end
$var wire 4 ." ex2_rd [3:0] $end
$var wire 1 X ex2_reg_write $end
$var wire 16 /" ex2_rs2_data [15:0] $end
$var wire 1 V ex2_zero $end
$var wire 1 0" flush_mem $end
$var wire 1 " rst $end
$var reg 16 1" mem_alu_result [15:0] $end
$var reg 1 : mem_branch $end
$var reg 1 9 mem_branch_ne $end
$var reg 16 2" mem_branch_target [15:0] $end
$var reg 1 7 mem_mem_read $end
$var reg 1 6 mem_mem_to_reg $end
$var reg 1 5 mem_mem_write $end
$var reg 4 3" mem_rd [3:0] $end
$var reg 1 2 mem_reg_write $end
$var reg 16 4" mem_rs2_data [15:0] $end
$var reg 1 0 mem_zero $end
$upscope $end
$scope module u_fwd $end
$var wire 1 [ exmem_mem_to_reg $end
$var wire 4 5" exmem_rd [3:0] $end
$var wire 1 X exmem_reg_write $end
$var wire 4 6" memwb_rd [3:0] $end
$var wire 1 2 memwb_reg_write $end
$var wire 4 7" idex_rs2 [3:0] $end
$var wire 4 8" idex_rs1 [3:0] $end
$var reg 2 9" forward_a [1:0] $end
$var reg 2 :" forward_b [1:0] $end
$upscope $end
$scope module u_hazard $end
$var wire 4 ;" ifid_rs1 [3:0] $end
$var wire 4 <" ifid_rs2 [3:0] $end
$var wire 4 =" idex_rd [3:0] $end
$var wire 1 m idex_mem_read $end
$var reg 1 U idex_flush $end
$var reg 1 < ifid_write $end
$var reg 1 E pc_write $end
$upscope $end
$scope module u_id_ex $end
$var wire 1 ! clk $end
$var wire 1 >" flush $end
$var wire 4 ?" id_alu_op [3:0] $end
$var wire 1 Q id_alu_src $end
$var wire 1 P id_branch $end
$var wire 1 O id_branch_ne $end
$var wire 16 @" id_imm [15:0] $end
$var wire 1 J id_mem_read $end
$var wire 1 I id_mem_to_reg $end
$var wire 1 H id_mem_write $end
$var wire 4 A" id_rd [3:0] $end
$var wire 1 C id_reg_write $end
$var wire 4 B" id_rs1 [3:0] $end
$var wire 4 C" id_rs2 [3:0] $end
$var wire 1 " rst $end
$var wire 16 D" id_rs2_data [15:0] $end
$var wire 16 E" id_rs1_data [15:0] $end
$var wire 16 F" id_pc [15:0] $end
$var reg 4 G" ex_alu_op [3:0] $end
$var reg 1 r ex_alu_src $end
$var reg 1 q ex_branch $end
$var reg 1 p ex_branch_ne $end
$var reg 16 H" ex_imm [15:0] $end
$var reg 1 m ex_mem_read $end
$var reg 1 l ex_mem_to_reg $end
$var reg 1 k ex_mem_write $end
$var reg 16 I" ex_pc [15:0] $end
$var reg 4 J" ex_rd [3:0] $end
$var reg 1 h ex_reg_write $end
$var reg 4 K" ex_rs1 [3:0] $end
$var reg 16 L" ex_rs1_data [15:0] $end
$var reg 4 M" ex_rs2 [3:0] $end
$var reg 16 N" ex_rs2_data [15:0] $end
$upscope $end
$scope module u_if $end
$var wire 1 % branch_taken $end
$var wire 16 O" branch_target [15:0] $end
$var wire 1 ! clk $end
$var wire 1 & flush_if $end
$var wire 1 v halt $end
$var wire 1 ' jump_taken $end
$var wire 16 P" jump_target [15:0] $end
$var wire 1 " rst $end
$var wire 1 Q" stall_if $end
$var wire 16 R" if_instr [15:0] $end
$var reg 16 S" if_pc [15:0] $end
$scope module u_imem $end
$var wire 16 T" addr [15:0] $end
$var wire 16 U" instr [15:0] $end
$upscope $end
$upscope $end
$scope module u_if_id $end
$var wire 1 ! clk $end
$var wire 1 & flush $end
$var wire 16 V" if_instr [15:0] $end
$var wire 16 W" if_pc [15:0] $end
$var wire 1 " rst $end
$var wire 1 ) stall $end
$var reg 16 X" id_instr [15:0] $end
$var reg 16 Y" id_pc [15:0] $end
$upscope $end
$scope module u_mem_wb $end
$var wire 16 Z" alu_result_in [15:0] $end
$var wire 1 ! clk $end
$var wire 1 [" flush $end
$var wire 16 \" mem_data_in [15:0] $end
$var wire 1 6 mem_to_reg_in $end
$var wire 4 ]" rd_in [3:0] $end
$var wire 1 2 reg_write_in $end
$var wire 1 " rst $end
$var reg 16 ^" alu_result [15:0] $end
$var reg 16 _" mem_data [15:0] $end
$var reg 1 - mem_to_reg $end
$var reg 4 `" rd [3:0] $end
$var reg 1 + reg_write $end
$upscope $end
$scope module u_rf $end
$var wire 1 ! clk $end
$var wire 4 a" rd [3:0] $end
$var wire 16 b" rd_data [15:0] $end
$var wire 1 + reg_write $end
$var wire 4 c" rs1 [3:0] $end
$var wire 4 d" rs2 [3:0] $end
$var wire 1 " rst $end
$var wire 16 e" rs2_raw [15:0] $end
$var wire 16 f" rs2_data [15:0] $end
$var wire 16 g" rs1_raw [15:0] $end
$var wire 16 h" rs1_data [15:0] $end
$var integer 32 i" i [31:0] $end
$upscope $end
$upscope $end
$scope task dump_state $end
$upscope $end
$upscope $end
$enddefinitions $end
$comment Show the parameter values. $end
$dumpall
$end
#0
$dumpvars
b10000 i"
b0 h"
b0 g"
b0 f"
b0 e"
b0 d"
b0 c"
b0 b"
b0 a"
b0 `"
b0 _"
b0 ^"
b0 ]"
b0 \"
z["
b0 Z"
b0 Y"
b0 X"
b0 W"
b110000100000001 V"
b110000100000001 U"
b0 T"
b0 S"
b110000100000001 R"
0Q"
b0 P"
b0 O"
b0 N"
b0 M"
b0 L"
b0 K"
b0 J"
b0 I"
b0 H"
b0 G"
b0 F"
b0 E"
b0 D"
b0 C"
b0 B"
b0 A"
b0 @"
b0 ?"
0>"
b0 ="
b0 <"
b0 ;"
b0 :"
b0 9"
b0 8"
b0 7"
b0 6"
b0 5"
b0 4"
b0 3"
b0 2"
b0 1"
00"
b0 /"
b0 ."
b0 -"
b0 ,"
b0 +"
b0 *"
b0 )"
b0 ("
b0 '"
b0 &"
b0 %"
b0 $"
b100000000 #"
b0 ""
b0 !"
b0 ~
b0 }
b0 |
1{
b0 z
b0 y
b0 x
b0 w
0v
b0 u
b0 t
b0 s
0r
0q
0p
b0 o
b0 n
0m
0l
0k
b0 j
b0 i
0h
b0 g
b0 f
b0 e
b0 d
b0 c
b0 b
1a
b0 `
0_
0^
b0 ]
0\
0[
0Z
b0 Y
0X
b0 W
0V
0U
b0 T
b0 S
b0 R
0Q
0P
0O
0N
b0 M
b0 L
0K
0J
0I
0H
b0 G
b0 F
1E
b0 D
0C
b0 B
b0 A
b0 @
b0 ?
b110000100000001 >
b0 =
1<
b0 ;
0:
09
b0 8
07
06
05
b0 4
b0 3
02
b0 1
00
b0 /
b0 .
0-
b0 ,
0+
b0 *
0)
b0 (
0'
0&
0%
bx $
bx #
1"
0!
$end
#5
b10000 i"
1!
#10
0!
#15
b10000 i"
1!
#20
0!
#25
1Q
1C
b1 (
b1 P"
b1 M
b1 @"
b1 @
b1 <"
b1 C"
b1 d"
b1 D
b1 A"
b110 G
b110 |
b110001000000101 >
b110001000000101 R"
b110001000000101 U"
b110001000000101 V"
1V
0{
b110000100000001 L
b110000100000001 X"
b1 =
b1 S"
b1 T"
b1 W"
1!
0"
#30
0!
#35
0a
b1 s
b1 z
b1 $"
b1011001000010000 >
b1011001000010000 R"
b1011001000010000 U"
b1011001000010000 V"
b101 (
b101 P"
b101 M
b101 @"
b101 @
b101 <"
b101 C"
b101 d"
b10 D
b10 A"
b1 u
b1 x
b10 =
b10 S"
b10 T"
b10 W"
b110001000000101 L
b110001000000101 X"
b1 F
b1 F"
b1 Y"
1r
1h
b1 i
b1 '"
b1 ="
b1 J"
b1 d
b1 7"
b1 M"
b1 o
b1 %"
b1 n
b1 H"
10
1!
#40
0!
#45
b101 s
b101 z
b101 $"
1H
1Q
0C
b101 u
b101 x
b0 (
b0 P"
b0 M
b0 @"
b0 @
b0 <"
b0 C"
b0 d"
b1 B
b1 ;"
b1 B"
b1 c"
b1011 G
b1011 |
b1010001100010000 >
b1010001100010000 R"
b1010001100010000 U"
b1010001100010000 V"
1X
0V
b1 Y
b1 *"
b1 ."
b1 5"
b1 ]
b1 )"
b1 -"
b1 O"
b1 `
b1 ("
b1 ,"
b10 i
b10 '"
b10 ="
b10 J"
b101 d
b101 7"
b101 M"
b101 n
b101 H"
b110 o
b110 %"
b1 j
b1 I"
b1011001000010000 L
b1011001000010000 X"
b10 F
b10 F"
b10 Y"
b11 =
b11 S"
b11 T"
b11 W"
1!
#50
0!
#55
b1 e
b1 w
1I
1J
1C
0H
1Q
0a
b1 s
b1 z
b1 $"
b1111000000000000 >
b1111000000000000 R"
b1111000000000000 U"
b1111000000000000 V"
b11 D
b11 A"
b1010 G
b1010 |
b0 u
b0 x
b1 T
b1 9"
b100 =
b100 S"
b100 T"
b100 W"
b1010001100010000 L
b1010001100010000 X"
b11 F
b11 F"
b11 Y"
1k
0h
b0 d
b0 7"
b0 M"
b1 g
b1 8"
b1 K"
b0 n
b0 H"
b10 o
b10 %"
b10 j
b10 I"
b10 Y
b10 *"
b10 ."
b10 5"
b110 ]
b110 )"
b110 -"
b110 O"
b101 `
b101 ("
b101 ,"
12
00
b1 8
b1 2"
b1 4
b1 3"
b1 6"
b1 ]"
b1 ;
b1 !"
b1 1"
b1 Z"
1!
#60
0!
#65
1a
b0 s
b0 z
b0 $"
b0 e
b0 w
1N
0I
0J
0Q
0C
b1 *
b1 b"
b0 T
b0 9"
b0 B
b0 ;"
b0 B"
b0 c"
b0 D
b0 A"
b1111 G
b1111 |
bx >
bx R"
bx U"
bx V"
b1 ,
b1 `"
b1 a"
b1 /
b1 ^"
1+
b110 8
b110 2"
b10 4
b10 3"
b10 6"
b10 ]"
b101 ;
b101 !"
b101 1"
b101 Z"
1Z
0X
b10 ]
b10 )"
b10 -"
b10 O"
b1 `
b1 ("
b1 ,"
1l
0k
1m
1h
b11 i
b11 '"
b11 ="
b11 J"
b11 o
b11 %"
b11 j
b11 I"
b1111000000000000 L
b1111000000000000 X"
b100 F
b100 F"
b100 Y"
b101 =
b101 S"
b101 T"
b101 W"
1!
#70
0!
#75
bx ?
bx D"
bx f"
bx A
bx E"
bx h"
bx e"
bx g"
0N
bx (
bx P"
bx M
bx @"
bx @
bx <"
bx C"
bx d"
bx B
bx ;"
bx B"
bx c"
bx D
bx A"
bx G
bx |
b101 *
b101 b"
1Q"
b110 =
b110 S"
b110 T"
b110 W"
x{
bx L
bx X"
b101 F
b101 F"
b101 Y"
0l
0m
0r
0h
b0 i
b0 '"
b0 ="
b0 J"
b0 g
b0 8"
b0 K"
b100 o
b100 %"
b100 j
b100 I"
1[
0Z
1\
1X
1V
b11 Y
b11 *"
b11 ."
b11 5"
b11 ]
b11 )"
b11 -"
b11 O"
b0 `
b0 ("
b0 ,"
15
02
b10 8
b10 2"
b1 ;
b1 !"
b1 1"
b1 Z"
b10 ,
b10 `"
b10 a"
b101 /
b101 ^"
1v
1!
#80
0!
#85
bx u
bx x
xa
bx s
bx z
bx $"
bx b
bx &"
bx e
bx w
b1 *
b1 b"
b1 /
b1 ^"
0+
16
05
17
12
10
b11 8
b11 2"
b11 4
b11 3"
b11 6"
b11 ]"
b0 ;
b0 !"
b0 1"
b0 Z"
0[
0\
0X
b0 Y
b0 *"
b0 ."
b0 5"
b100 ]
b100 )"
b100 -"
b100 O"
bx i
bx '"
bx ="
bx J"
bx d
bx 7"
bx M"
bx g
bx 8"
bx K"
bx n
bx H"
bx c
bx N"
bx f
bx L"
bx o
bx %"
b101 j
b101 I"
b110 F
b110 F"
b110 Y"
b100 #
1!
#90
0!
#95
b0 *
b0 b"
b110 j
b110 I"
xV
bx Y
bx *"
bx ."
bx 5"
bx ]
bx )"
bx -"
bx O"
bx W
bx +"
bx /"
bx `
bx ("
bx ,"
06
07
02
b100 8
b100 2"
b0 4
b0 3"
b0 6"
b0 ]"
b11 ,
b11 `"
b11 a"
b0 /
b0 ^"
1+
1-
b11 #
1!
#100
0!
#105
b0 ,
b0 `"
b0 a"
0+
0-
x0
bx 8
bx 2"
bx 4
bx 3"
bx 6"
bx ]"
bx 1
bx ~
bx 4"
bx ;
bx !"
bx 1"
bx Z"
b10 #
1!
#110
0!
#115
bx *
bx b"
bx ,
bx `"
bx a"
bx /
bx ^"
b1 #
1!
#120
0!
#125
b10000 $
b0 #
1!
