architecture/cpu_pipeline.vcd
$date
	Sat Dec 20 00:38:19 2025
$end
$version
	Icarus Verilog
$end
$timescale
	1ns
$end
$scope module cpu_tb_pipeline $end
$var reg 1 ! clk $end
$var reg 1 " rst $end
$scope module dut $end
$var wire 1 # branch_taken $end
$var wire 16 $ branch_target [15:0] $end
$var wire 1 ! clk $end
$var wire 1 " rst $end
$var wire 1 % wb_reg_write $end
$var wire 16 & wb_read_data [15:0] $end
$var wire 4 ' wb_rd [3:0] $end
$var wire 1 ( wb_mem_to_reg $end
$var wire 16 ) wb_data [15:0] $end
$var wire 16 * wb_alu_result [15:0] $end
$var wire 1 + mem_zero $end
$var wire 16 , mem_rs2_data [15:0] $end
$var wire 1 - mem_reg_write $end
$var wire 16 . mem_read_data [15:0] $end
$var wire 4 / mem_rd [3:0] $end
$var wire 1 0 mem_mem_write $end
$var wire 1 1 mem_mem_to_reg $end
$var wire 1 2 mem_mem_read $end
$var wire 16 3 mem_branch_target [15:0] $end
$var wire 1 4 mem_branch_ne $end
$var wire 1 5 mem_branch $end
$var wire 16 6 mem_alu_result [15:0] $end
$var wire 16 7 if_pc [15:0] $end
$var wire 16 8 if_instr [15:0] $end
$var wire 16 9 id_rs2_data [15:0] $end
$var wire 4 : id_rs2 [3:0] $end
$var wire 16 ; id_rs1_data [15:0] $end
$var wire 4 < id_rs1 [3:0] $end
$var wire 1 = id_reg_write $end
$var wire 4 > id_rd [3:0] $end
$var wire 16 ? id_pc [15:0] $end
$var wire 4 @ id_opcode [3:0] $end
$var wire 1 A id_mem_write $end
$var wire 1 B id_mem_to_reg $end
$var wire 1 C id_mem_read $end
$var wire 16 D id_instr [15:0] $end
$var wire 16 E id_imm [15:0] $end
$var wire 1 F id_halt $end
$var wire 1 G id_branch_ne $end
$var wire 1 H id_branch $end
$var wire 1 I id_alu_src $end
$var wire 4 J id_alu_op [3:0] $end
$var wire 16 K ex_rs2_data [15:0] $end
$var wire 16 L ex_rs1_data [15:0] $end
$var wire 1 M ex_reg_write $end
$var wire 4 N ex_rd [3:0] $end
$var wire 16 O ex_pc [15:0] $end
$var wire 1 P ex_mem_write $end
$var wire 1 Q ex_mem_to_reg $end
$var wire 1 R ex_mem_read $end
$var wire 16 S ex_imm [15:0] $end
$var wire 16 T ex_branch_target [15:0] $end
$var wire 1 U ex_branch_ne $end
$var wire 1 V ex_branch $end
$var wire 1 W ex_alu_src $end
$var wire 4 X ex_alu_op [3:0] $end
$var wire 1 Y ex2_zero $end
$var wire 16 Z ex2_alu_result [15:0] $end
$var wire 16 [ ex1_alu_in2 [15:0] $end
$var wire 16 \ ex1_alu_in1 [15:0] $end
$var reg 1 ] halted $end
$scope module u_ctrl $end
$var wire 4 ^ opcode [3:0] $end
$var wire 1 _ stall $end
$var wire 1 ` zero $end
$var reg 4 a alu_op [3:0] $end
$var reg 1 I alu_src $end
$var reg 1 H branch $end
$var reg 1 G branch_ne $end
$var reg 1 F halt $end
$var reg 1 C mem_read $end
$var reg 1 B mem_to_reg $end
$var reg 1 A mem_write $end
$var reg 1 b pc_write $end
$var reg 1 = reg_write $end
$upscope $end
$scope module u_dmem $end
$var wire 1 ! clk $end
$var wire 1 c rst $end
$var wire 16 d wdata [15:0] $end
$var wire 1 0 mem_write $end
$var wire 1 2 mem_read $end
$var wire 16 e addr [15:0] $end
$var reg 16 f rdata [15:0] $end
$var integer 32 g i [31:0] $end
$upscope $end
$scope module u_ex1 $end
$var wire 1 ! clk $end
$var wire 16 h exmem_alu_result [15:0] $end
$var wire 2 i forward_a [1:0] $end
$var wire 2 j forward_b [1:0] $end
$var wire 16 k memwb_wb_data [15:0] $end
$var wire 1 " rst $end
$var wire 16 l ex_rs2_data [15:0] $end
$var wire 16 m ex_rs1_data [15:0] $end
$var wire 16 n ex_imm [15:0] $end
$var wire 1 W ex_alu_src $end
$var reg 16 o alu_in1 [15:0] $end
$var reg 16 p alu_in2 [15:0] $end
$var reg 16 q src_a [15:0] $end
$var reg 16 r src_b [15:0] $end
$upscope $end
$scope module u_ex2 $end
$var wire 16 s alu_in1 [15:0] $end
$var wire 16 t alu_in2 [15:0] $end
$var wire 1 ! clk $end
$var wire 1 " rst $end
$var wire 4 u alu_op [3:0] $end
$var reg 16 v alu_result [15:0] $end
$var reg 1 Y zero $end
$upscope $end
$scope module u_ex_mem $end
$var wire 1 ! clk $end
$var wire 16 w ex2_alu_result [15:0] $end
$var wire 16 x ex2_branch_target [15:0] $end
$var wire 1 Y ex2_zero $end
$var wire 1 # flush_mem $end
$var wire 1 " rst $end
$var wire 1 y stall_mem $end
$var wire 16 z ex2_rs2_data [15:0] $end
$var wire 1 M ex2_reg_write $end
$var wire 4 { ex2_rd [3:0] $end
$var wire 1 P ex2_mem_write $end
$var wire 1 Q ex2_mem_to_reg $end
$var wire 1 R ex2_mem_read $end
$var wire 1 U ex2_branch_ne $end
$var wire 1 V ex2_branch $end
$var reg 16 | mem_alu_result [15:0] $end
$var reg 1 5 mem_branch $end
$var reg 1 4 mem_branch_ne $end
$var reg 16 } mem_branch_target [15:0] $end
$var reg 1 2 mem_mem_read $end
$var reg 1 1 mem_mem_to_reg $end
$var reg 1 0 mem_mem_write $end
$var reg 4 ~ mem_rd [3:0] $end
$var reg 1 - mem_reg_write $end
$var reg 16 !" mem_rs2_data [15:0] $end
$var reg 1 + mem_zero $end
$upscope $end
$scope module u_id_ex $end
$var wire 1 ! clk $end
$var wire 1 # flush_ex $end
$var wire 4 "" id_alu_op [3:0] $end
$var wire 1 I id_alu_src $end
$var wire 1 H id_branch $end
$var wire 1 G id_branch_ne $end
$var wire 16 #" id_imm [15:0] $end
$var wire 1 C id_mem_read $end
$var wire 1 B id_mem_to_reg $end
$var wire 1 A id_mem_write $end
$var wire 4 $" id_rd [3:0] $end
$var wire 1 = id_reg_write $end
$var wire 4 %" id_rs1 [3:0] $end
$var wire 4 &" id_rs2 [3:0] $end
$var wire 1 " rst $end
$var wire 1 ] stall_ex $end
$var wire 16 '" id_rs2_data [15:0] $end
$var wire 16 (" id_rs1_data [15:0] $end
$var wire 16 )" id_pc [15:0] $end
$var reg 4 *" ex_alu_op [3:0] $end
$var reg 1 W ex_alu_src $end
$var reg 1 V ex_branch $end
$var reg 1 U ex_branch_ne $end
$var reg 16 +" ex_imm [15:0] $end
$var reg 1 R ex_mem_read $end
$var reg 1 Q ex_mem_to_reg $end
$var reg 1 P ex_mem_write $end
$var reg 16 ," ex_pc [15:0] $end
$var reg 4 -" ex_rd [3:0] $end
$var reg 1 M ex_reg_write $end
$var reg 4 ." ex_rs1 [3:0] $end
$var reg 16 /" ex_rs1_data [15:0] $end
$var reg 4 0" ex_rs2 [3:0] $end
$var reg 16 1" ex_rs2_data [15:0] $end
$upscope $end
$scope module u_if $end
$var wire 1 # branch_taken $end
$var wire 16 2" branch_target [15:0] $end
$var wire 1 ! clk $end
$var wire 1 # flush_if $end
$var wire 1 F halt $end
$var wire 1 3" pc_en $end
$var wire 1 " rst $end
$var wire 1 ] stall_if $end
$var wire 16 4" next_pc [15:0] $end
$var wire 16 5" imem_instr [15:0] $end
$var wire 16 6" if_pc [15:0] $end
$var reg 16 7" if_instr [15:0] $end
$scope module u_imem $end
$var wire 1 ! clk $end
$var wire 1 8" rst $end
$var wire 1 9" stall $end
$var wire 16 :" addr [15:0] $end
$var reg 16 ;" instr [15:0] $end
$var reg 16 <" instr_next [15:0] $end
$upscope $end
$scope module u_pc $end
$var wire 1 ! clk $end
$var wire 16 =" next_pc [15:0] $end
$var wire 1 3" pc_en $end
$var wire 1 " rst $end
$var reg 16 >" pc_cur [15:0] $end
$upscope $end
$upscope $end
$scope module u_if_id $end
$var wire 1 ! clk $end
$var wire 1 # flush_id $end
$var wire 16 ?" if_instr [15:0] $end
$var wire 16 @" if_pc [15:0] $end
$var wire 1 " rst $end
$var wire 1 ] stall_id $end
$var reg 16 A" id_instr [15:0] $end
$var reg 16 B" id_pc [15:0] $end
$upscope $end
$scope module u_mem_wb $end
$var wire 1 ! clk $end
$var wire 1 # flush_wb $end
$var wire 16 C" mem_alu_result [15:0] $end
$var wire 1 1 mem_mem_to_reg $end
$var wire 4 D" mem_rd [3:0] $end
$var wire 16 E" mem_read_data [15:0] $end
$var wire 1 - mem_reg_write $end
$var wire 1 " rst $end
$var reg 16 F" wb_alu_result [15:0] $end
$var reg 1 ( wb_mem_to_reg $end
$var reg 4 G" wb_rd [3:0] $end
$var reg 16 H" wb_read_data [15:0] $end
$var reg 1 % wb_reg_write $end
$upscope $end
$scope module u_rf $end
$var wire 1 ! clk $end
$var wire 4 I" rd [3:0] $end
$var wire 16 J" rd_data [15:0] $end
$var wire 1 % reg_write $end
$var wire 4 K" rs1 [3:0] $end
$var wire 4 L" rs2 [3:0] $end
$var wire 1 " rst $end
$var wire 16 M" rs2_raw [15:0] $end
$var wire 16 N" rs2_data [15:0] $end
$var wire 16 O" rs1_raw [15:0] $end
$var wire 16 P" rs1_data [15:0] $end
$var integer 32 Q" i [31:0] $end
$upscope $end
$upscope $end
$scope task dump_state $end
$var integer 32 R" i [31:0] $end
$upscope $end
$upscope $end
$enddefinitions $end
$comment Show the parameter values. $end
$dumpall
$end
#0
$dumpvars
bx R"
b10000 Q"
b0 P"
b0 O"
b0 N"
b0 M"
b0 L"
b0 K"
b0 J"
b0 I"
b0 H"
b0 G"
b0 F"
bx E"
b0 D"
b0 C"
b0 B"
b0 A"
b0 @"
b1110000000000000 ?"
b0 >"
b1 ="
b110000100000101 <"
bx ;"
b0 :"
z9"
z8"
b1110000000000000 7"
b0 6"
bx 5"
b1 4"
13"
b0 2"
b0 1"
b0 0"
b0 /"
b0 ."
b0 -"
b0 ,"
b0 +"
b0 *"
b0 )"
b0 ("
b0 '"
bz &"
bz %"
b0 $"
b0 #"
b0 ""
b0 !"
b0 ~
b0 }
b0 |
b0 {
b0 z
zy
b0 x
b0 w
b0 v
b0 u
b0 t
b0 s
b0 r
b0 q
b0 p
b0 o
b0 n
b0 m
b0 l
bz k
bz j
bz i
bz h
bx g
bx f
b0 e
b0 d
zc
1b
b0 a
z`
z_
b0 ^
0]
b0 \
b0 [
b0 Z
1Y
b0 X
0W
0V
0U
b0 T
b0 S
0R
0Q
0P
b0 O
b0 N
0M
b0 L
b0 K
b0 J
0I
0H
0G
0F
b0 E
b0 D
0C
0B
0A
b0 @
b0 ?
b0 >
1=
b0 <
b0 ;
b0 :
b0 9
b1110000000000000 8
b0 7
b0 6
05
04
b0 3
02
01
00
b0 /
bx .
0-
b0 ,
0+
b0 *
b0 )
0(
b0 '
b0 &
0%
b0 $
0#
1"
0!
$end
#5
b0 .
b0 f
b0 E"
b10000 Q"
1!
#10
0!
#15
b10000 Q"
1!
#20
0!
0"
#25
0=
b1110 @
b1110 ^
b10 4"
b10 ="
b110001000000111 <"
1M
bz 0"
bz ."
b1110000000000000 D
b1110000000000000 A"
bx 8
bx 7"
bx ?"
b1 7
b1 6"
b1 :"
b1 >"
b1 @"
1!
#30
0!
#35
bx 9
bx '"
bx N"
bx ;
bx ("
bx P"
bx M"
bx O"
b11 4"
b11 ="
b1100010010 <"
bx E
bx #"
bx :
bx L"
bx <
bx K"
bx >
bx $"
bx @
bx ^
b10 7
b10 6"
b10 :"
b10 >"
b10 @"
bx D
bx A"
b1 ?
b1 )"
b1 B"
0M
1!
#40
0!
#45
xY
bx Z
bx v
bx w
bx [
bx p
bx t
bx \
bx o
bx s
bx r
bx q
b100 4"
b100 ="
b1111000000000000 <"
b1 O
b1 ,"
bx N
bx {
bx -"
bx T
bx x
bx S
bx n
bx +"
bx K
bx l
bx z
bx 1"
bx L
bx m
bx /"
b10 ?
b10 )"
b10 B"
b11 7
b11 6"
b11 :"
b11 >"
b11 @"
1!
#50
0!
#55
b101 4"
b101 ="
bx <"
b100 7
b100 6"
b100 :"
b100 >"
b100 @"
b11 ?
b11 )"
b11 B"
b10 O
b10 ,"
1!
#60
0!
#65
b110 4"
b110 ="
b11 O
b11 ,"
b100 ?
b100 )"
b100 B"
b101 7
b101 6"
b101 :"
b101 >"
b101 @"
1!
#70
0!
#75
b111 4"
b111 ="
b110 7
b110 6"
b110 :"
b110 >"
b110 @"
b101 ?
b101 )"
b101 B"
b100 O
b100 ,"
1!
#80
0!
#85
b1000 4"
b1000 ="
b101 O
b101 ,"
b110 ?
b110 )"
b110 B"
b111 7
b111 6"
b111 :"
b111 >"
b111 @"
1!
#90
0!
#95
b1001 4"
b1001 ="
b1000 7
b1000 6"
b1000 :"
b1000 >"
b1000 @"
b111 ?
b111 )"
b111 B"
b110 O
b110 ,"
1!
#100
0!
#105
b1010 4"
b1010 ="
b111 O
b111 ,"
b1000 ?
b1000 )"
b1000 B"
b1001 7
b1001 6"
b1001 :"
b1001 >"
b1001 @"
1!
#110
0!
#115
b1011 4"
b1011 ="
b1010 7
b1010 6"
b1010 :"
b1010 >"
b1010 @"
b1001 ?
b1001 )"
b1001 B"
b1000 O
b1000 ,"
1!
#120
0!
#125
b1100 4"
b1100 ="
b1001 O
b1001 ,"
b1010 ?
b1010 )"
b1010 B"
b1011 7
b1011 6"
b1011 :"
b1011 >"
b1011 @"
1!
#130
0!
#135
b1101 4"
b1101 ="
b1100 7
b1100 6"
b1100 :"
b1100 >"
b1100 @"
b1011 ?
b1011 )"
b1011 B"
b1010 O
b1010 ,"
1!
#140
0!
#145
b1110 4"
b1110 ="
b1011 O
b1011 ,"
b1100 ?
b1100 )"
b1100 B"
b1101 7
b1101 6"
b1101 :"
b1101 >"
b1101 @"
1!
#150
0!
#155
b1111 4"
b1111 ="
b1110 7
b1110 6"
b1110 :"
b1110 >"
b1110 @"
b1101 ?
b1101 )"
b1101 B"
b1100 O
b1100 ,"
1!
#160
0!
#165
b10000 4"
b10000 ="
b1101 O
b1101 ,"
b1110 ?
b1110 )"
b1110 B"
b1111 7
b1111 6"
b1111 :"
b1111 >"
b1111 @"
1!
#170
0!
#175
b10001 4"
b10001 ="
b10000 7
b10000 6"
b10000 :"
b10000 >"
b10000 @"
b1111 ?
b1111 )"
b1111 B"
b1110 O
b1110 ,"
1!
#180
0!
#185
b10010 4"
b10010 ="
b1111 O
b1111 ,"
b10000 ?
b10000 )"
b10000 B"
b10001 7
b10001 6"
b10001 :"
b10001 >"
b10001 @"
1!
#190
0!
#195
b10011 4"
b10011 ="
b10010 7
b10010 6"
b10010 :"
b10010 >"
b10010 @"
b10001 ?
b10001 )"
b10001 B"
b10000 O
b10000 ,"
1!
#200
0!
#205
b10100 4"
b10100 ="
b10001 O
b10001 ,"
b10010 ?
b10010 )"
b10010 B"
b10011 7
b10011 6"
b10011 :"
b10011 >"
b10011 @"
1!
#210
0!
#215
b10101 4"
b10101 ="
b10100 7
b10100 6"
b10100 :"
b10100 >"
b10100 @"
b10011 ?
b10011 )"
b10011 B"
b10010 O
b10010 ,"
1!
#220
0!
#225
b10110 4"
b10110 ="
b10011 O
b10011 ,"
b10100 ?
b10100 )"
b10100 B"
b10101 7
b10101 6"
b10101 :"
b10101 >"
b10101 @"
1!
#230
0!
#235
b10111 4"
b10111 ="
b10110 7
b10110 6"
b10110 :"
b10110 >"
b10110 @"
b10101 ?
b10101 )"
b10101 B"
b10100 O
b10100 ,"
1!
#240
0!
#245
b11000 4"
b11000 ="
b10101 O
b10101 ,"
b10110 ?
b10110 )"
b10110 B"
b10111 7
b10111 6"
b10111 :"
b10111 >"
b10111 @"
1!
#250
0!
#255
b11001 4"
b11001 ="
b11000 7
b11000 6"
b11000 :"
b11000 >"
b11000 @"
b10111 ?
b10111 )"
b10111 B"
b10110 O
b10110 ,"
1!
#260
0!
#265
b11010 4"
b11010 ="
b10111 O
b10111 ,"
b11000 ?
b11000 )"
b11000 B"
b11001 7
b11001 6"
b11001 :"
b11001 >"
b11001 @"
1!
#270
0!
#275
b11011 4"
b11011 ="
b11010 7
b11010 6"
b11010 :"
b11010 >"
b11010 @"
b11001 ?
b11001 )"
b11001 B"
b11000 O
b11000 ,"
1!
#280
0!
#285
b11100 4"
b11100 ="
b11001 O
b11001 ,"
b11010 ?
b11010 )"
b11010 B"
b11011 7
b11011 6"
b11011 :"
b11011 >"
b11011 @"
1!
#290
0!
#295
b11101 4"
b11101 ="
b11100 7
b11100 6"
b11100 :"
b11100 >"
b11100 @"
b11011 ?
b11011 )"
b11011 B"
b11010 O
b11010 ,"
1!
#300
0!
#305
b11110 4"
b11110 ="
b11011 O
b11011 ,"
b11100 ?
b11100 )"
b11100 B"
b11101 7
b11101 6"
b11101 :"
b11101 >"
b11101 @"
1!
#310
0!
#315
b11111 4"
b11111 ="
b11110 7
b11110 6"
b11110 :"
b11110 >"
b11110 @"
b11101 ?
b11101 )"
b11101 B"
b11100 O
b11100 ,"
1!
#320
0!
#325
b100000 4"
b100000 ="
b11101 O
b11101 ,"
b11110 ?
b11110 )"
b11110 B"
b11111 7
b11111 6"
b11111 :"
b11111 >"
b11111 @"
1!
#330
0!
#335
b100001 4"
b100001 ="
b100000 7
b100000 6"
b100000 :"
b100000 >"
b100000 @"
b11111 ?
b11111 )"
b11111 B"
b11110 O
b11110 ,"
1!
#340
0!
#345
b100010 4"
b100010 ="
b11111 O
b11111 ,"
b100000 ?
b100000 )"
b100000 B"
b100001 7
b100001 6"
b100001 :"
b100001 >"
b100001 @"
1!
#350
0!
#355
b100011 4"
b100011 ="
b100010 7
b100010 6"
b100010 :"
b100010 >"
b100010 @"
b100001 ?
b100001 )"
b100001 B"
b100000 O
b100000 ,"
1!
#360
0!
#365
b100100 4"
b100100 ="
b100001 O
b100001 ,"
b100010 ?
b100010 )"
b100010 B"
b100011 7
b100011 6"
b100011 :"
b100011 >"
b100011 @"
1!
#370
0!
#375
b100101 4"
b100101 ="
b100100 7
b100100 6"
b100100 :"
b100100 >"
b100100 @"
b100011 ?
b100011 )"
b100011 B"
b100010 O
b100010 ,"
1!
#380
0!
#385
b100110 4"
b100110 ="
b100011 O
b100011 ,"
b100100 ?
b100100 )"
b100100 B"
b100101 7
b100101 6"
b100101 :"
b100101 >"
b100101 @"
1!
#390
0!
#395
b100111 4"
b100111 ="
b100110 7
b100110 6"
b100110 :"
b100110 >"
b100110 @"
b100101 ?
b100101 )"
b100101 B"
b100100 O
b100100 ,"
1!
#400
0!
#405
b101000 4"
b101000 ="
b100101 O
b100101 ,"
b100110 ?
b100110 )"
b100110 B"
b100111 7
b100111 6"
b100111 :"
b100111 >"
b100111 @"
1!
#410
0!
#415
b101001 4"
b101001 ="
b101000 7
b101000 6"
b101000 :"
b101000 >"
b101000 @"
b100111 ?
b100111 )"
b100111 B"
b100110 O
b100110 ,"
1!
#420
0!
#425
b101010 4"
b101010 ="
b100111 O
b100111 ,"
b101000 ?
b101000 )"
b101000 B"
b101001 7
b101001 6"
b101001 :"
b101001 >"
b101001 @"
1!
#430
0!
#435
b101011 4"
b101011 ="
b101010 7
b101010 6"
b101010 :"
b101010 >"
b101010 @"
b101001 ?
b101001 )"
b101001 B"
b101000 O
b101000 ,"
1!
#440
0!
#445
b101100 4"
b101100 ="
b101001 O
b101001 ,"
b101010 ?
b101010 )"
b101010 B"
b101011 7
b101011 6"
b101011 :"
b101011 >"
b101011 @"
1!
#450
0!
#455
b101101 4"
b101101 ="
b101100 7
b101100 6"
b101100 :"
b101100 >"
b101100 @"
b101011 ?
b101011 )"
b101011 B"
b101010 O
b101010 ,"
1!
#460
0!
#465
b101110 4"
b101110 ="
b101011 O
b101011 ,"
b101100 ?
b101100 )"
b101100 B"
b101101 7
b101101 6"
b101101 :"
b101101 >"
b101101 @"
1!
#470
0!
#475
b101111 4"
b101111 ="
b101110 7
b101110 6"
b101110 :"
b101110 >"
b101110 @"
b101101 ?
b101101 )"
b101101 B"
b101100 O
b101100 ,"
1!
#480
0!
#485
b110000 4"
b110000 ="
b101101 O
b101101 ,"
b101110 ?
b101110 )"
b101110 B"
b101111 7
b101111 6"
b101111 :"
b101111 >"
b101111 @"
1!
#490
0!
#495
b110001 4"
b110001 ="
b110000 7
b110000 6"
b110000 :"
b110000 >"
b110000 @"
b101111 ?
b101111 )"
b101111 B"
b101110 O
b101110 ,"
1!
#500
0!
#505
b110010 4"
b110010 ="
b101111 O
b101111 ,"
b110000 ?
b110000 )"
b110000 B"
b110001 7
b110001 6"
b110001 :"
b110001 >"
b110001 @"
1!
#510
0!
#515
b110011 4"
b110011 ="
b110010 7
b110010 6"
b110010 :"
b110010 >"
b110010 @"
b110001 ?
b110001 )"
b110001 B"
b110000 O
b110000 ,"
1!
#520
0!
#525
b110100 4"
b110100 ="
b110001 O
b110001 ,"
b110010 ?
b110010 )"
b110010 B"
b110011 7
b110011 6"
b110011 :"
b110011 >"
b110011 @"
1!
#530
0!
#535
b110101 4"
b110101 ="
b110100 7
b110100 6"
b110100 :"
b110100 >"
b110100 @"
b110011 ?
b110011 )"
b110011 B"
b110010 O
b110010 ,"
1!
#540
0!
#545
b110110 4"
b110110 ="
b110011 O
b110011 ,"
b110100 ?
b110100 )"
b110100 B"
b110101 7
b110101 6"
b110101 :"
b110101 >"
b110101 @"
1!
#550
0!
#555
b110111 4"
b110111 ="
b110110 7
b110110 6"
b110110 :"
b110110 >"
b110110 @"
b110101 ?
b110101 )"
b110101 B"
b110100 O
b110100 ,"
1!
#560
0!
#565
b111000 4"
b111000 ="
b110101 O
b110101 ,"
b110110 ?
b110110 )"
b110110 B"
b110111 7
b110111 6"
b110111 :"
b110111 >"
b110111 @"
1!
#570
0!
#575
b111001 4"
b111001 ="
b111000 7
b111000 6"
b111000 :"
b111000 >"
b111000 @"
b110111 ?
b110111 )"
b110111 B"
b110110 O
b110110 ,"
1!
#580
0!
#585
b111010 4"
b111010 ="
b110111 O
b110111 ,"
b111000 ?
b111000 )"
b111000 B"
b111001 7
b111001 6"
b111001 :"
b111001 >"
b111001 @"
1!
#590
0!
#595
b111011 4"
b111011 ="
b111010 7
b111010 6"
b111010 :"
b111010 >"
b111010 @"
b111001 ?
b111001 )"
b111001 B"
b111000 O
b111000 ,"
1!
#600
0!
#605
b111100 4"
b111100 ="
b111001 O
b111001 ,"
b111010 ?
b111010 )"
b111010 B"
b111011 7
b111011 6"
b111011 :"
b111011 >"
b111011 @"
1!
#610
0!
#615
b111101 4"
b111101 ="
b111100 7
b111100 6"
b111100 :"
b111100 >"
b111100 @"
b111011 ?
b111011 )"
b111011 B"
b111010 O
b111010 ,"
1!
#620
0!
#625
b111110 4"
b111110 ="
b111011 O
b111011 ,"
b111100 ?
b111100 )"
b111100 B"
b111101 7
b111101 6"
b111101 :"
b111101 >"
b111101 @"
1!
#630
0!
#635
b111111 4"
b111111 ="
b111110 7
b111110 6"
b111110 :"
b111110 >"
b111110 @"
b111101 ?
b111101 )"
b111101 B"
b111100 O
b111100 ,"
1!
#640
0!
#645
b1000000 4"
b1000000 ="
b111101 O
b111101 ,"
b111110 ?
b111110 )"
b111110 B"
b111111 7
b111111 6"
b111111 :"
b111111 >"
b111111 @"
1!
#650
0!
#655
b1000001 4"
b1000001 ="
b1000000 7
b1000000 6"
b1000000 :"
b1000000 >"
b1000000 @"
b111111 ?
b111111 )"
b111111 B"
b111110 O
b111110 ,"
1!
#660
0!
#665
b1000010 4"
b1000010 ="
b111111 O
b111111 ,"
b1000000 ?
b1000000 )"
b1000000 B"
b1000001 7
b1000001 6"
b1000001 :"
b1000001 >"
b1000001 @"
1!
#670
0!
#675
b1000011 4"
b1000011 ="
b1000010 7
b1000010 6"
b1000010 :"
b1000010 >"
b1000010 @"
b1000001 ?
b1000001 )"
b1000001 B"
b1000000 O
b1000000 ,"
1!
#680
0!
#685
b1000100 4"
b1000100 ="
b1000001 O
b1000001 ,"
b1000010 ?
b1000010 )"
b1000010 B"
b1000011 7
b1000011 6"
b1000011 :"
b1000011 >"
b1000011 @"
1!
#690
0!
#695
b1000101 4"
b1000101 ="
b1000100 7
b1000100 6"
b1000100 :"
b1000100 >"
b1000100 @"
b1000011 ?
b1000011 )"
b1000011 B"
b1000010 O
b1000010 ,"
1!
#700
0!
#705
b1000110 4"
b1000110 ="
b1000011 O
b1000011 ,"
b1000100 ?
b1000100 )"
b1000100 B"
b1000101 7
b1000101 6"
b1000101 :"
b1000101 >"
b1000101 @"
1!
#710
0!
#715
b1000111 4"
b1000111 ="
b1000110 7
b1000110 6"
b1000110 :"
b1000110 >"
b1000110 @"
b1000101 ?
b1000101 )"
b1000101 B"
b1000100 O
b1000100 ,"
1!
#720
0!
#725
b1001000 4"
b1001000 ="
b1000101 O
b1000101 ,"
b1000110 ?
b1000110 )"
b1000110 B"
b1000111 7
b1000111 6"
b1000111 :"
b1000111 >"
b1000111 @"
1!
#730
0!
#735
b1001001 4"
b1001001 ="
b1001000 7
b1001000 6"
b1001000 :"
b1001000 >"
b1001000 @"
b1000111 ?
b1000111 )"
b1000111 B"
b1000110 O
b1000110 ,"
1!
#740
0!
#745
b1001010 4"
b1001010 ="
b1000111 O
b1000111 ,"
b1001000 ?
b1001000 )"
b1001000 B"
b1001001 7
b1001001 6"
b1001001 :"
b1001001 >"
b1001001 @"
1!
#750
0!
#755
b1001011 4"
b1001011 ="
b1001010 7
b1001010 6"
b1001010 :"
b1001010 >"
b1001010 @"
b1001001 ?
b1001001 )"
b1001001 B"
b1001000 O
b1001000 ,"
1!
#760
0!
#765
b1001100 4"
b1001100 ="
b1001001 O
b1001001 ,"
b1001010 ?
b1001010 )"
b1001010 B"
b1001011 7
b1001011 6"
b1001011 :"
b1001011 >"
b1001011 @"
1!
#770
0!
#775
b1001101 4"
b1001101 ="
b1001100 7
b1001100 6"
b1001100 :"
b1001100 >"
b1001100 @"
b1001011 ?
b1001011 )"
b1001011 B"
b1001010 O
b1001010 ,"
1!
#780
0!
#785
b1001110 4"
b1001110 ="
b1001011 O
b1001011 ,"
b1001100 ?
b1001100 )"
b1001100 B"
b1001101 7
b1001101 6"
b1001101 :"
b1001101 >"
b1001101 @"
1!
#790
0!
#795
b1001111 4"
b1001111 ="
b1001110 7
b1001110 6"
b1001110 :"
b1001110 >"
b1001110 @"
b1001101 ?
b1001101 )"
b1001101 B"
b1001100 O
b1001100 ,"
1!
#800
0!
#805
b1010000 4"
b1010000 ="
b1001101 O
b1001101 ,"
b1001110 ?
b1001110 )"
b1001110 B"
b1001111 7
b1001111 6"
b1001111 :"
b1001111 >"
b1001111 @"
1!
#810
0!
#815
b1010001 4"
b1010001 ="
b1010000 7
b1010000 6"
b1010000 :"
b1010000 >"
b1010000 @"
b1001111 ?
b1001111 )"
b1001111 B"
b1001110 O
b1001110 ,"
1!
#820
0!
#825
b1010010 4"
b1010010 ="
b1001111 O
b1001111 ,"
b1010000 ?
b1010000 )"
b1010000 B"
b1010001 7
b1010001 6"
b1010001 :"
b1010001 >"
b1010001 @"
1!
#830
0!
#835
b1010011 4"
b1010011 ="
b1010010 7
b1010010 6"
b1010010 :"
b1010010 >"
b1010010 @"
b1010001 ?
b1010001 )"
b1010001 B"
b1010000 O
b1010000 ,"
1!
#840
0!
#845
b1010100 4"
b1010100 ="
b1010001 O
b1010001 ,"
b1010010 ?
b1010010 )"
b1010010 B"
b1010011 7
b1010011 6"
b1010011 :"
b1010011 >"
b1010011 @"
1!
#850
0!
#855
b1010101 4"
b1010101 ="
b1010100 7
b1010100 6"
b1010100 :"
b1010100 >"
b1010100 @"
b1010011 ?
b1010011 )"
b1010011 B"
b1010010 O
b1010010 ,"
1!
#860
0!
#865
b1010110 4"
b1010110 ="
b1010011 O
b1010011 ,"
b1010100 ?
b1010100 )"
b1010100 B"
b1010101 7
b1010101 6"
b1010101 :"
b1010101 >"
b1010101 @"
1!
#870
0!
#875
b1010111 4"
b1010111 ="
b1010110 7
b1010110 6"
b1010110 :"
b1010110 >"
b1010110 @"
b1010101 ?
b1010101 )"
b1010101 B"
b1010100 O
b1010100 ,"
1!
#880
0!
#885
b1011000 4"
b1011000 ="
b1010101 O
b1010101 ,"
b1010110 ?
b1010110 )"
b1010110 B"
b1010111 7
b1010111 6"
b1010111 :"
b1010111 >"
b1010111 @"
1!
#890
0!
#895
b1011001 4"
b1011001 ="
b1011000 7
b1011000 6"
b1011000 :"
b1011000 >"
b1011000 @"
b1010111 ?
b1010111 )"
b1010111 B"
b1010110 O
b1010110 ,"
1!
#900
0!
#905
b1011010 4"
b1011010 ="
b1010111 O
b1010111 ,"
b1011000 ?
b1011000 )"
b1011000 B"
b1011001 7
b1011001 6"
b1011001 :"
b1011001 >"
b1011001 @"
1!
#910
0!
#915
b1011011 4"
b1011011 ="
b1011010 7
b1011010 6"
b1011010 :"
b1011010 >"
b1011010 @"
b1011001 ?
b1011001 )"
b1011001 B"
b1011000 O
b1011000 ,"
1!
#920
0!
#925
b1011100 4"
b1011100 ="
b1011001 O
b1011001 ,"
b1011010 ?
b1011010 )"
b1011010 B"
b1011011 7
b1011011 6"
b1011011 :"
b1011011 >"
b1011011 @"
1!
#930
0!
#935
b1011101 4"
b1011101 ="
b1011100 7
b1011100 6"
b1011100 :"
b1011100 >"
b1011100 @"
b1011011 ?
b1011011 )"
b1011011 B"
b1011010 O
b1011010 ,"
1!
#940
0!
#945
b1011110 4"
b1011110 ="
b1011011 O
b1011011 ,"
b1011100 ?
b1011100 )"
b1011100 B"
b1011101 7
b1011101 6"
b1011101 :"
b1011101 >"
b1011101 @"
1!
#950
0!
#955
b1011111 4"
b1011111 ="
b1011110 7
b1011110 6"
b1011110 :"
b1011110 >"
b1011110 @"
b1011101 ?
b1011101 )"
b1011101 B"
b1011100 O
b1011100 ,"
1!
#960
0!
