architecture/cpu_pipeline.vcd
$date
	Sat Dec 20 23:37:41 2025
$end
$version
	Icarus Verilog
$end
$timescale
	1ns
$end
$scope module cpu_tb_pipeline $end
$var reg 1 ! clk $end
$var reg 1 " rst $end
$scope module dut $end
$var wire 1 ! clk $end
$var wire 4 # ex_alu_op [3:0] $end
$var wire 1 $ ex_alu_src $end
$var wire 16 % ex_imm [15:0] $end
$var wire 1 & ex_mem_read $end
$var wire 1 ' ex_mem_to_reg $end
$var wire 1 ( ex_mem_write $end
$var wire 1 ) ex_reg_write $end
$var wire 1 * flush_signal $end
$var wire 16 + if_instr [15:0] $end
$var wire 1 , mem_branch $end
$var wire 1 - mem_branch_ne $end
$var wire 16 . mem_branch_target [15:0] $end
$var wire 1 / mem_zero $end
$var wire 1 " rst $end
$var wire 1 0 stall_signal $end
$var wire 16 1 wb_read_data [15:0] $end
$var wire 1 2 wb_reg_write $end
$var wire 4 3 wb_rd [3:0] $end
$var wire 1 4 wb_mem_to_reg $end
$var wire 16 5 wb_data [15:0] $end
$var wire 16 6 wb_alu_result [15:0] $end
$var wire 16 7 mem_rs2_data [15:0] $end
$var wire 1 8 mem_reg_write $end
$var wire 4 9 mem_rd [3:0] $end
$var wire 1 : mem_mem_write $end
$var wire 1 ; mem_mem_to_reg $end
$var wire 1 < mem_mem_read $end
$var wire 16 = mem_alu_result [15:0] $end
$var wire 16 > if_pc [15:0] $end
$var wire 16 ? id_rs2_data [15:0] $end
$var wire 4 @ id_rs2 [3:0] $end
$var wire 16 A id_rs1_data [15:0] $end
$var wire 4 B id_rs1 [3:0] $end
$var wire 1 C id_reg_write $end
$var wire 4 D id_rd [3:0] $end
$var wire 16 E id_pc [15:0] $end
$var wire 4 F id_opcode [3:0] $end
$var wire 1 G id_mem_write $end
$var wire 1 H id_mem_to_reg $end
$var wire 1 I id_mem_read $end
$var wire 1 J id_jump $end
$var wire 16 K id_instr [15:0] $end
$var wire 16 L id_imm [15:0] $end
$var wire 1 M id_halt $end
$var wire 1 N id_branch_ne $end
$var wire 1 O id_branch $end
$var wire 1 P id_alu_src $end
$var wire 4 Q id_alu_op [3:0] $end
$var wire 2 R forward_b [1:0] $end
$var wire 2 S forward_a [1:0] $end
$var wire 16 T ex_rs2_data [15:0] $end
$var wire 16 U ex_rs1_data [15:0] $end
$var wire 4 V ex_rd [3:0] $end
$var wire 16 W ex_pc [15:0] $end
$var wire 1 X ex1_zero $end
$var wire 16 Y ex1_alu_result [15:0] $end
$var reg 1 Z halted $end
$scope module u_ctrl $end
$var wire 4 [ opcode [3:0] $end
$var wire 1 \ stall $end
$var reg 4 ] alu_op [3:0] $end
$var reg 1 P alu_src $end
$var reg 1 O branch $end
$var reg 1 N branch_ne $end
$var reg 1 M halt $end
$var reg 1 J jump $end
$var reg 1 I mem_read $end
$var reg 1 H mem_to_reg $end
$var reg 1 G mem_write $end
$var reg 1 ^ pc_write $end
$var reg 1 C reg_write $end
$upscope $end
$scope module u_dmem $end
$var wire 1 ! clk $end
$var wire 16 _ write_data [15:0] $end
$var wire 1 : mem_write $end
$var wire 1 < mem_read $end
$var wire 16 ` addr [15:0] $end
$var reg 16 a read_data [15:0] $end
$var integer 32 b i [31:0] $end
$upscope $end
$scope module u_ex1 $end
$var wire 4 c alu_op [3:0] $end
$var wire 1 $ alu_src $end
$var wire 16 d branch_target [15:0] $end
$var wire 16 e imm [15:0] $end
$var wire 4 f rd [3:0] $end
$var wire 4 g rd_out [3:0] $end
$var wire 16 h wb_data [15:0] $end
$var wire 1 X zero $end
$var wire 16 i rs2_data [15:0] $end
$var wire 16 j rs1_data [15:0] $end
$var wire 16 k pc_in [15:0] $end
$var wire 2 l forward_b [1:0] $end
$var wire 2 m forward_a [1:0] $end
$var wire 16 n ex2_alu_result [15:0] $end
$var wire 16 o alu_result [15:0] $end
$var wire 16 p alu_b [15:0] $end
$var reg 16 q op_a [15:0] $end
$var reg 16 r op_b [15:0] $end
$scope module u_alu $end
$var wire 16 s a [15:0] $end
$var wire 4 t alu_op [3:0] $end
$var wire 16 u b [15:0] $end
$var wire 1 X zero $end
$var reg 16 v alu_result [15:0] $end
$upscope $end
$upscope $end
$scope module u_ex2 $end
$var wire 16 w alu_result_in [15:0] $end
$var wire 16 x alu_result_out [15:0] $end
$var wire 1 & mem_read_in $end
$var wire 1 < mem_read_out $end
$var wire 1 ' mem_to_reg_in $end
$var wire 1 ; mem_to_reg_out $end
$var wire 1 ( mem_write_in $end
$var wire 1 : mem_write_out $end
$var wire 4 y rd_in [3:0] $end
$var wire 4 z rd_out [3:0] $end
$var wire 1 ) reg_write_in $end
$var wire 1 8 reg_write_out $end
$var wire 16 { rs2_data_out [15:0] $end
$var wire 16 | rs2_data_in [15:0] $end
$upscope $end
$scope module u_fwd $end
$var wire 1 ; exmem_mem_to_reg $end
$var wire 4 } exmem_rd [3:0] $end
$var wire 1 8 exmem_reg_write $end
$var wire 4 ~ idex_rs1 [3:0] $end
$var wire 4 !" idex_rs2 [3:0] $end
$var wire 1 2 memwb_reg_write $end
$var wire 4 "" memwb_rd [3:0] $end
$var reg 2 #" forward_a [1:0] $end
$var reg 2 $" forward_b [1:0] $end
$upscope $end
$scope module u_id_ex $end
$var wire 1 ! clk $end
$var wire 1 %" flush $end
$var wire 1 " rst $end
$var wire 16 &" rs2_data [15:0] $end
$var wire 16 '" rs1_data [15:0] $end
$var wire 16 (" id_pc [15:0] $end
$var wire 16 )" id_instr [15:0] $end
$var reg 16 *" ex_instr [15:0] $end
$var reg 16 +" ex_pc [15:0] $end
$var reg 16 ," ex_rs1 [15:0] $end
$var reg 16 -" ex_rs2 [15:0] $end
$upscope $end
$scope module u_if $end
$var wire 1 ." branch_taken $end
$var wire 16 /" branch_target [15:0] $end
$var wire 1 ! clk $end
$var wire 1 0" flush_if $end
$var wire 1 M halt $end
$var wire 16 1" if_instr [15:0] $end
$var wire 1 " rst $end
$var wire 1 Z stall_if $end
$var reg 16 2" if_pc [15:0] $end
$scope module u_imem $end
$var wire 16 3" addr [15:0] $end
$var wire 16 4" instr [15:0] $end
$upscope $end
$upscope $end
$scope module u_if_id $end
$var wire 1 ! clk $end
$var wire 1 * flush $end
$var wire 16 5" if_instr [15:0] $end
$var wire 16 6" if_pc [15:0] $end
$var wire 1 " rst $end
$var wire 1 0 stall $end
$var reg 16 7" id_instr [15:0] $end
$var reg 16 8" id_pc [15:0] $end
$upscope $end
$scope module u_imem $end
$var wire 16 9" addr [15:0] $end
$var wire 16 :" instr [15:0] $end
$upscope $end
$scope module u_mem_wb $end
$var wire 16 ;" alu_result_in [15:0] $end
$var wire 1 ! clk $end
$var wire 16 <" mem_data_in [15:0] $end
$var wire 1 ; mem_to_reg_in $end
$var wire 4 =" rd_in [3:0] $end
$var wire 1 8 reg_write_in $end
$var wire 1 " rst $end
$var reg 16 >" alu_result [15:0] $end
$var reg 16 ?" mem_data [15:0] $end
$var reg 1 4 mem_to_reg $end
$var reg 4 @" rd [3:0] $end
$var reg 1 2 reg_write $end
$upscope $end
$scope module u_rf $end
$var wire 1 ! clk $end
$var wire 4 A" rd [3:0] $end
$var wire 16 B" rd_data [15:0] $end
$var wire 1 2 reg_write $end
$var wire 4 C" rs1 [3:0] $end
$var wire 4 D" rs2 [3:0] $end
$var wire 1 " rst $end
$var wire 16 E" rs2_raw [15:0] $end
$var wire 16 F" rs2_data [15:0] $end
$var wire 16 G" rs1_raw [15:0] $end
$var wire 16 H" rs1_data [15:0] $end
$var integer 32 I" i [31:0] $end
$upscope $end
$upscope $end
$scope task dump_state $end
$var integer 32 J" i [31:0] $end
$upscope $end
$upscope $end
$enddefinitions $end
$comment Show the parameter values. $end
$dumpall
$end
#0
$dumpvars
bx J"
b10000 I"
b0 H"
b0 G"
b0 F"
b0 E"
b0 D"
b0 C"
b0 B"
b0 A"
b0 @"
b0 ?"
b0 >"
bz ="
b0 <"
b0 ;"
b111000100000001 :"
b0 9"
b0 8"
b1110000000000000 7"
b0 6"
b111000100000001 5"
b111000100000001 4"
b0 3"
b0 2"
b111000100000001 1"
00"
bx /"
0."
b0 -"
b0 ,"
b0 +"
b1110000000000000 *"
b1110000000000000 )"
b0 ("
b0 '"
b0 &"
0%"
b0 $"
b0 #"
b0 ""
bz !"
bz ~
bz }
b0 |
b0 {
bz z
bz y
b0 x
b0 w
b0 v
bx u
bz t
b0 s
b0 r
b0 q
bx p
b0 o
b0 n
b0 m
b0 l
b0 k
b0 j
b0 i
b0 h
bz g
bz f
bz e
bx d
bz c
b100000000 b
b0 a
b0 `
b0 _
1^
b0 ]
0\
b1110 [
0Z
b0 Y
1X
b0 W
bz V
b0 U
b0 T
b0 S
b0 R
b0 Q
0P
0O
0N
0M
b0 L
b1110000000000000 K
1J
0I
0H
0G
b1110 F
b0 E
b0 D
0C
b0 B
b0 A
b0 @
b0 ?
b0 >
b0 =
z<
z;
z:
bz 9
z8
b0 7
b0 6
b0 5
04
b0 3
02
b0 1
z0
1/
bx .
0-
0,
b111000100000001 +
z*
z)
z(
z'
z&
bz %
z$
bz #
1"
0!
$end
#5
b10000 I"
1!
#10
0!
#15
b10000 I"
1!
#20
0!
0"
#25
bz 3
bz ""
bz @"
bz A"
z2
z4
b111001000000000 +
b111001000000000 1"
b111001000000000 4"
b111001000000000 5"
b111001000000000 :"
b1 >
b1 2"
b1 3"
b1 6"
b1 9"
1!
#30
0!
#35
b111001100000111 +
b111001100000111 1"
b111001100000111 4"
b111001100000111 5"
b111001100000111 :"
b10 >
b10 2"
b10 3"
b10 6"
b10 9"
1!
#40
0!
#45
b1101001000110010 +
b1101001000110010 1"
b1101001000110010 4"
b1101001000110010 5"
b1101001000110010 :"
b11 >
b11 2"
b11 3"
b11 6"
b11 9"
1!
#50
0!
#55
b1000100010010 +
b1000100010010 1"
b1000100010010 4"
b1000100010010 5"
b1000100010010 :"
b100 >
b100 2"
b100 3"
b100 6"
b100 9"
1!
#60
0!
#65
b111001000100001 +
b111001000100001 1"
b111001000100001 4"
b111001000100001 5"
b111001000100001 :"
b101 >
b101 2"
b101 3"
b101 6"
b101 9"
1!
#70
0!
#75
b100000000000011 +
b100000000000011 1"
b100000000000011 4"
b100000000000011 5"
b100000000000011 :"
b110 >
b110 2"
b110 3"
b110 6"
b110 9"
1!
#80
0!
#85
b1111000000000000 +
b1111000000000000 1"
b1111000000000000 4"
b1111000000000000 5"
b1111000000000000 :"
b111 >
b111 2"
b111 3"
b111 6"
b111 9"
1!
#90
0!
#95
bx +
bx 1"
bx 4"
bx 5"
bx :"
b1000 >
b1000 2"
b1000 3"
b1000 6"
b1000 9"
1!
#100
0!
#105
b1001 >
b1001 2"
b1001 3"
b1001 6"
b1001 9"
1!
#110
0!
#115
b1010 >
b1010 2"
b1010 3"
b1010 6"
b1010 9"
1!
#120
0!
#125
b1011 >
b1011 2"
b1011 3"
b1011 6"
b1011 9"
1!
#130
0!
#135
b1100 >
b1100 2"
b1100 3"
b1100 6"
b1100 9"
1!
#140
0!
#145
b1101 >
b1101 2"
b1101 3"
b1101 6"
b1101 9"
1!
#150
0!
#155
b1110 >
b1110 2"
b1110 3"
b1110 6"
b1110 9"
1!
#160
0!
#165
b1111 >
b1111 2"
b1111 3"
b1111 6"
b1111 9"
1!
#170
0!
#175
b10000 >
b10000 2"
b10000 3"
b10000 6"
b10000 9"
1!
#180
0!
#185
b10001 >
b10001 2"
b10001 3"
b10001 6"
b10001 9"
1!
#190
0!
#195
b10010 >
b10010 2"
b10010 3"
b10010 6"
b10010 9"
1!
#200
0!
#205
b10011 >
b10011 2"
b10011 3"
b10011 6"
b10011 9"
1!
#210
0!
#215
b10100 >
b10100 2"
b10100 3"
b10100 6"
b10100 9"
1!
#220
0!
#225
b10101 >
b10101 2"
b10101 3"
b10101 6"
b10101 9"
1!
#230
0!
#235
b10110 >
b10110 2"
b10110 3"
b10110 6"
b10110 9"
1!
#240
0!
#245
b10111 >
b10111 2"
b10111 3"
b10111 6"
b10111 9"
1!
#250
0!
#255
b11000 >
b11000 2"
b11000 3"
b11000 6"
b11000 9"
1!
#260
0!
#265
b11001 >
b11001 2"
b11001 3"
b11001 6"
b11001 9"
1!
#270
0!
#275
b11010 >
b11010 2"
b11010 3"
b11010 6"
b11010 9"
1!
#280
0!
#285
b11011 >
b11011 2"
b11011 3"
b11011 6"
b11011 9"
1!
#290
0!
#295
b11100 >
b11100 2"
b11100 3"
b11100 6"
b11100 9"
1!
#300
0!
#305
b11101 >
b11101 2"
b11101 3"
b11101 6"
b11101 9"
1!
#310
0!
#315
b11110 >
b11110 2"
b11110 3"
b11110 6"
b11110 9"
1!
#320
0!
#325
b11111 >
b11111 2"
b11111 3"
b11111 6"
b11111 9"
1!
#330
0!
#335
b100000 >
b100000 2"
b100000 3"
b100000 6"
b100000 9"
1!
#340
0!
#345
b100001 >
b100001 2"
b100001 3"
b100001 6"
b100001 9"
1!
#350
0!
#355
b100010 >
b100010 2"
b100010 3"
b100010 6"
b100010 9"
1!
#360
0!
#365
b100011 >
b100011 2"
b100011 3"
b100011 6"
b100011 9"
1!
#370
0!
#375
b100100 >
b100100 2"
b100100 3"
b100100 6"
b100100 9"
1!
#380
0!
#385
b100101 >
b100101 2"
b100101 3"
b100101 6"
b100101 9"
1!
#390
0!
#395
b100110 >
b100110 2"
b100110 3"
b100110 6"
b100110 9"
1!
#400
0!
#405
b100111 >
b100111 2"
b100111 3"
b100111 6"
b100111 9"
1!
#410
0!
#415
b101000 >
b101000 2"
b101000 3"
b101000 6"
b101000 9"
1!
#420
0!
#425
b101001 >
b101001 2"
b101001 3"
b101001 6"
b101001 9"
1!
#430
0!
#435
b101010 >
b101010 2"
b101010 3"
b101010 6"
b101010 9"
1!
#440
0!
#445
b101011 >
b101011 2"
b101011 3"
b101011 6"
b101011 9"
1!
#450
0!
#455
b101100 >
b101100 2"
b101100 3"
b101100 6"
b101100 9"
1!
#460
0!
#465
b101101 >
b101101 2"
b101101 3"
b101101 6"
b101101 9"
1!
#470
0!
#475
b101110 >
b101110 2"
b101110 3"
b101110 6"
b101110 9"
1!
#480
0!
#485
b101111 >
b101111 2"
b101111 3"
b101111 6"
b101111 9"
1!
#490
0!
#495
b110000 >
b110000 2"
b110000 3"
b110000 6"
b110000 9"
1!
#500
0!
#505
b110001 >
b110001 2"
b110001 3"
b110001 6"
b110001 9"
1!
#510
0!
#515
b110010 >
b110010 2"
b110010 3"
b110010 6"
b110010 9"
1!
#520
0!
#525
b110011 >
b110011 2"
b110011 3"
b110011 6"
b110011 9"
1!
#530
0!
#535
b110100 >
b110100 2"
b110100 3"
b110100 6"
b110100 9"
1!
#540
0!
#545
b110101 >
b110101 2"
b110101 3"
b110101 6"
b110101 9"
1!
#550
0!
#555
b110110 >
b110110 2"
b110110 3"
b110110 6"
b110110 9"
1!
#560
0!
#565
b110111 >
b110111 2"
b110111 3"
b110111 6"
b110111 9"
1!
#570
0!
#575
b111000 >
b111000 2"
b111000 3"
b111000 6"
b111000 9"
1!
#580
0!
#585
b111001 >
b111001 2"
b111001 3"
b111001 6"
b111001 9"
1!
#590
0!
#595
b111010 >
b111010 2"
b111010 3"
b111010 6"
b111010 9"
1!
#600
0!
#605
b111011 >
b111011 2"
b111011 3"
b111011 6"
b111011 9"
1!
#610
0!
#615
b111100 >
b111100 2"
b111100 3"
b111100 6"
b111100 9"
1!
#620
0!
#625
b111101 >
b111101 2"
b111101 3"
b111101 6"
b111101 9"
1!
#630
0!
#635
b111110 >
b111110 2"
b111110 3"
b111110 6"
b111110 9"
1!
#640
0!
#645
b111111 >
b111111 2"
b111111 3"
b111111 6"
b111111 9"
1!
#650
0!
#655
b1000000 >
b1000000 2"
b1000000 3"
b1000000 6"
b1000000 9"
1!
#660
0!
#665
b1000001 >
b1000001 2"
b1000001 3"
b1000001 6"
b1000001 9"
1!
#670
0!
#675
b1000010 >
b1000010 2"
b1000010 3"
b1000010 6"
b1000010 9"
1!
#680
0!
#685
b1000011 >
b1000011 2"
b1000011 3"
b1000011 6"
b1000011 9"
1!
#690
0!
#695
b1000100 >
b1000100 2"
b1000100 3"
b1000100 6"
b1000100 9"
1!
#700
0!
#705
b1000101 >
b1000101 2"
b1000101 3"
b1000101 6"
b1000101 9"
1!
#710
0!
#715
b1000110 >
b1000110 2"
b1000110 3"
b1000110 6"
b1000110 9"
1!
#720
0!
#725
b1000111 >
b1000111 2"
b1000111 3"
b1000111 6"
b1000111 9"
1!
#730
0!
#735
b1001000 >
b1001000 2"
b1001000 3"
b1001000 6"
b1001000 9"
1!
#740
0!
#745
b1001001 >
b1001001 2"
b1001001 3"
b1001001 6"
b1001001 9"
1!
#750
0!
#755
b1001010 >
b1001010 2"
b1001010 3"
b1001010 6"
b1001010 9"
1!
#760
0!
#765
b1001011 >
b1001011 2"
b1001011 3"
b1001011 6"
b1001011 9"
1!
#770
0!
#775
b1001100 >
b1001100 2"
b1001100 3"
b1001100 6"
b1001100 9"
1!
#780
0!
#785
b1001101 >
b1001101 2"
b1001101 3"
b1001101 6"
b1001101 9"
1!
#790
0!
#795
b1001110 >
b1001110 2"
b1001110 3"
b1001110 6"
b1001110 9"
1!
#800
0!
#805
b1001111 >
b1001111 2"
b1001111 3"
b1001111 6"
b1001111 9"
1!
#810
0!
#815
b1010000 >
b1010000 2"
b1010000 3"
b1010000 6"
b1010000 9"
1!
#820
0!
#825
b1010001 >
b1010001 2"
b1010001 3"
b1010001 6"
b1010001 9"
1!
#830
0!
#835
b1010010 >
b1010010 2"
b1010010 3"
b1010010 6"
b1010010 9"
1!
#840
0!
#845
b1010011 >
b1010011 2"
b1010011 3"
b1010011 6"
b1010011 9"
1!
#850
0!
#855
b1010100 >
b1010100 2"
b1010100 3"
b1010100 6"
b1010100 9"
1!
#860
0!
#865
b1010101 >
b1010101 2"
b1010101 3"
b1010101 6"
b1010101 9"
1!
#870
0!
#875
b1010110 >
b1010110 2"
b1010110 3"
b1010110 6"
b1010110 9"
1!
#880
0!
#885
b1010111 >
b1010111 2"
b1010111 3"
b1010111 6"
b1010111 9"
1!
#890
0!
#895
b1011000 >
b1011000 2"
b1011000 3"
b1011000 6"
b1011000 9"
1!
#900
0!
#905
b1011001 >
b1011001 2"
b1011001 3"
b1011001 6"
b1011001 9"
1!
#910
0!
#915
b1011010 >
b1011010 2"
b1011010 3"
b1011010 6"
b1011010 9"
1!
#920
0!
#925
b1011011 >
b1011011 2"
b1011011 3"
b1011011 6"
b1011011 9"
1!
#930
0!
#935
b1011100 >
b1011100 2"
b1011100 3"
b1011100 6"
b1011100 9"
1!
#940
0!
#945
b1011101 >
b1011101 2"
b1011101 3"
b1011101 6"
b1011101 9"
1!
#950
0!
#955
b1011110 >
b1011110 2"
b1011110 3"
b1011110 6"
b1011110 9"
1!
#960
0!
#965
b1011111 >
b1011111 2"
b1011111 3"
b1011111 6"
b1011111 9"
1!
#970
0!
#975
b1100000 >
b1100000 2"
b1100000 3"
b1100000 6"
b1100000 9"
1!
#980
0!
#985
b1100001 >
b1100001 2"
b1100001 3"
b1100001 6"
b1100001 9"
1!
#990
0!
#995
b1100010 >
b1100010 2"
b1100010 3"
b1100010 6"
b1100010 9"
1!
#1000
0!
#1005
b1100011 >
b1100011 2"
b1100011 3"
b1100011 6"
b1100011 9"
1!
#1010
0!
#1015
b1100100 >
b1100100 2"
b1100100 3"
b1100100 6"
b1100100 9"
1!
#1020
0!
#1025
b1100101 >
b1100101 2"
b1100101 3"
b1100101 6"
b1100101 9"
1!
#1030
0!
#1035
b1100110 >
b1100110 2"
b1100110 3"
b1100110 6"
b1100110 9"
1!
#1040
0!
#1045
b1100111 >
b1100111 2"
b1100111 3"
b1100111 6"
b1100111 9"
1!
#1050
0!
#1055
b1101000 >
b1101000 2"
b1101000 3"
b1101000 6"
b1101000 9"
1!
#1060
0!
#1065
b1101001 >
b1101001 2"
b1101001 3"
b1101001 6"
b1101001 9"
1!
#1070
0!
#1075
b1101010 >
b1101010 2"
b1101010 3"
b1101010 6"
b1101010 9"
1!
#1080
0!
#1085
b1101011 >
b1101011 2"
b1101011 3"
b1101011 6"
b1101011 9"
1!
#1090
0!
#1095
b1101100 >
b1101100 2"
b1101100 3"
b1101100 6"
b1101100 9"
1!
#1100
0!
#1105
b1101101 >
b1101101 2"
b1101101 3"
b1101101 6"
b1101101 9"
1!
#1110
0!
#1115
b1101110 >
b1101110 2"
b1101110 3"
b1101110 6"
b1101110 9"
1!
#1120
0!
#1125
b1101111 >
b1101111 2"
b1101111 3"
b1101111 6"
b1101111 9"
1!
#1130
0!
#1135
b1110000 >
b1110000 2"
b1110000 3"
b1110000 6"
b1110000 9"
1!
#1140
0!
#1145
b1110001 >
b1110001 2"
b1110001 3"
b1110001 6"
b1110001 9"
1!
#1150
0!
#1155
b1110010 >
b1110010 2"
b1110010 3"
b1110010 6"
b1110010 9"
1!
#1160
0!
#1165
b1110011 >
b1110011 2"
b1110011 3"
b1110011 6"
b1110011 9"
1!
#1170
0!
#1175
b1110100 >
b1110100 2"
b1110100 3"
b1110100 6"
b1110100 9"
1!
#1180
0!
#1185
b1110101 >
b1110101 2"
b1110101 3"
b1110101 6"
b1110101 9"
1!
#1190
0!
#1195
b1110110 >
b1110110 2"
b1110110 3"
b1110110 6"
b1110110 9"
1!
#1200
0!
#1205
b1110111 >
b1110111 2"
b1110111 3"
b1110111 6"
b1110111 9"
1!
#1210
0!
#1215
b1111000 >
b1111000 2"
b1111000 3"
b1111000 6"
b1111000 9"
1!
#1220
0!
#1225
b1111001 >
b1111001 2"
b1111001 3"
b1111001 6"
b1111001 9"
1!
#1230
0!
#1235
b1111010 >
b1111010 2"
b1111010 3"
b1111010 6"
b1111010 9"
1!
#1240
0!
#1245
b1111011 >
b1111011 2"
b1111011 3"
b1111011 6"
b1111011 9"
1!
#1250
0!
#1255
b1111100 >
b1111100 2"
b1111100 3"
b1111100 6"
b1111100 9"
1!
#1260
0!
#1265
b1111101 >
b1111101 2"
b1111101 3"
b1111101 6"
b1111101 9"
1!
#1270
0!
#1275
b1111110 >
b1111110 2"
b1111110 3"
b1111110 6"
b1111110 9"
1!
#1280
0!
#1285
b1111111 >
b1111111 2"
b1111111 3"
b1111111 6"
b1111111 9"
1!
#1290
0!
#1295
b10000000 >
b10000000 2"
b10000000 3"
b10000000 6"
b10000000 9"
1!
#1300
0!
#1305
b10000001 >
b10000001 2"
b10000001 3"
b10000001 6"
b10000001 9"
1!
#1310
0!
#1315
b10000010 >
b10000010 2"
b10000010 3"
b10000010 6"
b10000010 9"
1!
#1320
0!
#1325
b10000011 >
b10000011 2"
b10000011 3"
b10000011 6"
b10000011 9"
1!
#1330
0!
#1335
b10000100 >
b10000100 2"
b10000100 3"
b10000100 6"
b10000100 9"
1!
#1340
0!
#1345
b10000101 >
b10000101 2"
b10000101 3"
b10000101 6"
b10000101 9"
1!
#1350
0!
#1355
b10000110 >
b10000110 2"
b10000110 3"
b10000110 6"
b10000110 9"
1!
#1360
0!
#1365
b10000111 >
b10000111 2"
b10000111 3"
b10000111 6"
b10000111 9"
1!
#1370
0!
#1375
b10001000 >
b10001000 2"
b10001000 3"
b10001000 6"
b10001000 9"
1!
#1380
0!
#1385
b10001001 >
b10001001 2"
b10001001 3"
b10001001 6"
b10001001 9"
1!
#1390
0!
#1395
b10001010 >
b10001010 2"
b10001010 3"
b10001010 6"
b10001010 9"
1!
#1400
0!
#1405
b10001011 >
b10001011 2"
b10001011 3"
b10001011 6"
b10001011 9"
1!
#1410
0!
#1415
b10001100 >
b10001100 2"
b10001100 3"
b10001100 6"
b10001100 9"
1!
#1420
0!
#1425
b10001101 >
b10001101 2"
b10001101 3"
b10001101 6"
b10001101 9"
1!
#1430
0!
#1435
b10001110 >
b10001110 2"
b10001110 3"
b10001110 6"
b10001110 9"
1!
#1440
0!
#1445
b10001111 >
b10001111 2"
b10001111 3"
b10001111 6"
b10001111 9"
1!
#1450
0!
#1455
b10010000 >
b10010000 2"
b10010000 3"
b10010000 6"
b10010000 9"
1!
#1460
0!
#1465
b10010001 >
b10010001 2"
b10010001 3"
b10010001 6"
b10010001 9"
1!
#1470
0!
#1475
b10010010 >
b10010010 2"
b10010010 3"
b10010010 6"
b10010010 9"
1!
#1480
0!
#1485
b10010011 >
b10010011 2"
b10010011 3"
b10010011 6"
b10010011 9"
1!
#1490
0!
#1495
b10010100 >
b10010100 2"
b10010100 3"
b10010100 6"
b10010100 9"
1!
#1500
0!
#1505
b10010101 >
b10010101 2"
b10010101 3"
b10010101 6"
b10010101 9"
1!
#1510
0!
#1515
b10010110 >
b10010110 2"
b10010110 3"
b10010110 6"
b10010110 9"
1!
#1520
0!
#1525
b10010111 >
b10010111 2"
b10010111 3"
b10010111 6"
b10010111 9"
1!
#1530
0!
#1535
b10011000 >
b10011000 2"
b10011000 3"
b10011000 6"
b10011000 9"
1!
#1540
0!
#1545
b10011001 >
b10011001 2"
b10011001 3"
b10011001 6"
b10011001 9"
1!
#1550
0!
#1555
b10011010 >
b10011010 2"
b10011010 3"
b10011010 6"
b10011010 9"
1!
#1560
0!
#1565
b10011011 >
b10011011 2"
b10011011 3"
b10011011 6"
b10011011 9"
1!
#1570
0!
#1575
b10011100 >
b10011100 2"
b10011100 3"
b10011100 6"
b10011100 9"
1!
#1580
0!
#1585
b10011101 >
b10011101 2"
b10011101 3"
b10011101 6"
b10011101 9"
1!
#1590
0!
#1595
b10011110 >
b10011110 2"
b10011110 3"
b10011110 6"
b10011110 9"
1!
#1600
0!
#1605
b10011111 >
b10011111 2"
b10011111 3"
b10011111 6"
b10011111 9"
1!
#1610
0!
#1615
b10100000 >
b10100000 2"
b10100000 3"
b10100000 6"
b10100000 9"
1!
#1620
0!
#1625
b10100001 >
b10100001 2"
b10100001 3"
b10100001 6"
b10100001 9"
1!
#1630
0!
#1635
b10100010 >
b10100010 2"
b10100010 3"
b10100010 6"
b10100010 9"
1!
#1640
0!
#1645
b10100011 >
b10100011 2"
b10100011 3"
b10100011 6"
b10100011 9"
1!
#1650
0!
#1655
b10100100 >
b10100100 2"
b10100100 3"
b10100100 6"
b10100100 9"
1!
#1660
0!
#1665
b10100101 >
b10100101 2"
b10100101 3"
b10100101 6"
b10100101 9"
1!
#1670
0!
#1675
b10100110 >
b10100110 2"
b10100110 3"
b10100110 6"
b10100110 9"
1!
#1680
0!
#1685
b10100111 >
b10100111 2"
b10100111 3"
b10100111 6"
b10100111 9"
1!
#1690
0!
#1695
b10101000 >
b10101000 2"
b10101000 3"
b10101000 6"
b10101000 9"
1!
#1700
0!
#1705
b10101001 >
b10101001 2"
b10101001 3"
b10101001 6"
b10101001 9"
1!
#1710
0!
#1715
b10101010 >
b10101010 2"
b10101010 3"
b10101010 6"
b10101010 9"
1!
#1720
0!
#1725
b10101011 >
b10101011 2"
b10101011 3"
b10101011 6"
b10101011 9"
1!
#1730
0!
#1735
b10101100 >
b10101100 2"
b10101100 3"
b10101100 6"
b10101100 9"
1!
#1740
0!
#1745
b10101101 >
b10101101 2"
b10101101 3"
b10101101 6"
b10101101 9"
1!
#1750
0!
#1755
b10101110 >
b10101110 2"
b10101110 3"
b10101110 6"
b10101110 9"
1!
#1760
0!
#1765
b10101111 >
b10101111 2"
b10101111 3"
b10101111 6"
b10101111 9"
1!
#1770
0!
#1775
b10110000 >
b10110000 2"
b10110000 3"
b10110000 6"
b10110000 9"
1!
#1780
0!
#1785
b10110001 >
b10110001 2"
b10110001 3"
b10110001 6"
b10110001 9"
1!
#1790
0!
#1795
b10110010 >
b10110010 2"
b10110010 3"
b10110010 6"
b10110010 9"
1!
#1800
0!
#1805
b10110011 >
b10110011 2"
b10110011 3"
b10110011 6"
b10110011 9"
1!
#1810
0!
#1815
b10110100 >
b10110100 2"
b10110100 3"
b10110100 6"
b10110100 9"
1!
#1820
0!
#1825
b10110101 >
b10110101 2"
b10110101 3"
b10110101 6"
b10110101 9"
1!
#1830
0!
#1835
b10110110 >
b10110110 2"
b10110110 3"
b10110110 6"
b10110110 9"
1!
#1840
0!
#1845
b10110111 >
b10110111 2"
b10110111 3"
b10110111 6"
b10110111 9"
1!
#1850
0!
#1855
b10111000 >
b10111000 2"
b10111000 3"
b10111000 6"
b10111000 9"
1!
#1860
0!
#1865
b10111001 >
b10111001 2"
b10111001 3"
b10111001 6"
b10111001 9"
1!
#1870
0!
#1875
b10111010 >
b10111010 2"
b10111010 3"
b10111010 6"
b10111010 9"
1!
#1880
0!
#1885
b10111011 >
b10111011 2"
b10111011 3"
b10111011 6"
b10111011 9"
1!
#1890
0!
#1895
b10111100 >
b10111100 2"
b10111100 3"
b10111100 6"
b10111100 9"
1!
#1900
0!
#1905
b10111101 >
b10111101 2"
b10111101 3"
b10111101 6"
b10111101 9"
1!
#1910
0!
#1915
b10111110 >
b10111110 2"
b10111110 3"
b10111110 6"
b10111110 9"
1!
#1920
0!
#1925
b10111111 >
b10111111 2"
b10111111 3"
b10111111 6"
b10111111 9"
1!
#1930
0!
#1935
b11000000 >
b11000000 2"
b11000000 3"
b11000000 6"
b11000000 9"
1!
#1940
0!
#1945
b11000001 >
b11000001 2"
b11000001 3"
b11000001 6"
b11000001 9"
1!
#1950
0!
#1955
b11000010 >
b11000010 2"
b11000010 3"
b11000010 6"
b11000010 9"
1!
#1960
0!
#1965
b11000011 >
b11000011 2"
b11000011 3"
b11000011 6"
b11000011 9"
1!
#1970
0!
#1975
b11000100 >
b11000100 2"
b11000100 3"
b11000100 6"
b11000100 9"
1!
#1980
0!
#1985
b11000101 >
b11000101 2"
b11000101 3"
b11000101 6"
b11000101 9"
1!
#1990
0!
#1995
b11000110 >
b11000110 2"
b11000110 3"
b11000110 6"
b11000110 9"
1!
#2000
0!
